1	1	1	success
1	1	1	success
1	1	1	success
1	1	1	success
1	1	1	success
1	11	1	failure
1	11	1	failure
1	11	1	failure
1	2	10	success
1	1	10	success
1	1	10	success
1	1	10	success
1	1	100000	failure
1	2	3	success
1	1	5	success
1	1	2	success
4	1	10	success
1	2	2	success
1	1	1	success
1	1	1	success
1	1	1	success
1	1	1	success
1	1	1	success
1	1	1	success
2	2	2	success
3	3	3	success
1	1	1	success
1	1	1	success
1	1	1	success
1	1	1	success
